%YAML 1.1
%TAG !u! tag:unity3d.com,2011:
--- !u!29 &1
OcclusionCullingSettings:
  m_ObjectHideFlags: 0
  serializedVersion: 2
  m_OcclusionBakeSettings:
    smallestOccluder: 5
    smallestHole: 0.25
    backfaceThreshold: 100
  m_SceneGUID: 00000000000000000000000000000000
  m_OcclusionCullingData: {fileID: 0}
--- !u!104 &2
RenderSettings:
  m_ObjectHideFlags: 0
  serializedVersion: 7
  m_Fog: 0
  m_FogColor: {r: 0.5, g: 0.5, b: 0.5, a: 1}
  m_FogMode: 3
  m_FogDensity: 0.01
  m_LinearFogStart: 0
  m_LinearFogEnd: 300
  m_AmbientSkyColor: {r: 0.2, g: 0.2, b: 0.2, a: 1}
  m_AmbientEquatorColor: {r: 0.2, g: 0.2, b: 0.2, a: 1}
  m_AmbientGroundColor: {r: 0.2, g: 0.2, b: 0.2, a: 1}
  m_AmbientIntensity: 1
  m_AmbientMode: 3
  m_SkyboxMaterial: {fileID: 2100000, guid: da976b1a4f7ebb949b0f71341e4f1821, type: 2}
  m_HaloStrength: 0.5
  m_FlareStrength: 1
  m_FlareFadeSpeed: 3
  m_HaloTexture: {fileID: 0}
  m_SpotCookie: {fileID: 10001, guid: 0000000000000000e000000000000000, type: 0}
  m_DefaultReflectionMode: 0
  m_DefaultReflectionResolution: 128
  m_ReflectionBounces: 1
  m_ReflectionIntensity: 1
  m_CustomReflection: {fileID: 0}
  m_Sun: {fileID: 0}
  m_IndirectSpecularColor: {r: 0, g: 0, b: 0, a: 1}
--- !u!157 &4
LightmapSettings:
  m_ObjectHideFlags: 0
  serializedVersion: 7
  m_GIWorkflowMode: 1
  m_GISettings:
    serializedVersion: 2
    m_BounceScale: 1
    m_IndirectOutputScale: 1
    m_AlbedoBoost: 1
    m_TemporalCoherenceThreshold: 1
    m_EnvironmentLightingMode: 0
    m_EnableBakedLightmaps: 1
    m_EnableRealtimeLightmaps: 0
  m_LightmapEditorSettings:
    serializedVersion: 4
    m_Resolution: 1
    m_BakeResolution: 50
    m_TextureWidth: 1024
    m_TextureHeight: 1024
    m_AO: 1
    m_AOMaxDistance: 1
    m_CompAOExponent: 1
    m_CompAOExponentDirect: 0
    m_Padding: 2
    m_LightmapParameters: {fileID: 0}
    m_LightmapsBakeMode: 1
    m_TextureCompression: 0
    m_DirectLightInLightProbes: 1
    m_FinalGather: 0
    m_FinalGatherFiltering: 1
    m_FinalGatherRayCount: 256
    m_ReflectionCompression: 2
  m_LightingDataAsset: {fileID: 0}
  m_RuntimeCPUUsage: 25
--- !u!196 &5
NavMeshSettings:
  serializedVersion: 2
  m_ObjectHideFlags: 0
  m_BuildSettings:
    serializedVersion: 2
    agentTypeID: 0
    agentRadius: 0.5
    agentHeight: 2
    agentSlope: 45
    agentClimb: 0.4
    ledgeDropHeight: 0
    maxJumpAcrossDistance: 0
    minRegionArea: 2
    manualCellSize: 0
    cellSize: 0.16666666
    accuratePlacement: 0
  m_NavMeshData: {fileID: 0}
--- !u!1 &37254423
GameObject:
  m_ObjectHideFlags: 0
  m_PrefabParentObject: {fileID: 105534, guid: dc7adf126c171bd42b228317fa2c5b85, type: 2}
  m_PrefabInternal: {fileID: 2027826186}
  serializedVersion: 5
  m_Component:
  - component: {fileID: 37254424}
  - component: {fileID: 37254426}
  - component: {fileID: 37254425}
  m_Layer: 4
  m_Name: Caustic
  m_TagString: Untagged
  m_Icon: {fileID: 0}
  m_NavMeshLayer: 0
  m_StaticEditorFlags: 0
  m_IsActive: 1
--- !u!4 &37254424
Transform:
  m_ObjectHideFlags: 0
  m_PrefabParentObject: {fileID: 405534, guid: dc7adf126c171bd42b228317fa2c5b85, type: 2}
  m_PrefabInternal: {fileID: 2027826186}
  m_GameObject: {fileID: 37254423}
  m_LocalRotation: {x: 0.7071068, y: 0, z: 0, w: 0.7071068}
  m_LocalPosition: {x: 0, y: 0.4999999, z: 0}
  m_LocalScale: {x: 0.01, y: 0.010000001, z: 0.2}
  m_Children: []
  m_Father: {fileID: 666142676}
  m_RootOrder: 4
  m_LocalEulerAnglesHint: {x: 0, y: 0, z: 0}
--- !u!114 &37254425
MonoBehaviour:
  m_ObjectHideFlags: 0
  m_PrefabParentObject: {fileID: 11405534, guid: dc7adf126c171bd42b228317fa2c5b85,
    type: 2}
  m_PrefabInternal: {fileID: 2027826186}
  m_GameObject: {fileID: 37254423}
  m_Enabled: 1
  m_EditorHideFlags: 0
  m_Script: {fileID: 11500000, guid: 3210dce5a79129d4f80b45defa1d8c8f, type: 3}
  m_Name: 
  m_EditorClassIdentifier: 
  GlobalMatrixNames:
  - 5f70726f6a6563746976654d617472436175737469635363616c65
  ProjectiveTranforms:
  - {fileID: 956528548}
  UpdateOnStart: 1
  CanUpdate: 1
--- !u!119 &37254426
Projector:
  m_ObjectHideFlags: 0
  m_PrefabParentObject: {fileID: 11905534, guid: dc7adf126c171bd42b228317fa2c5b85,
    type: 2}
  m_PrefabInternal: {fileID: 2027826186}
  m_GameObject: {fileID: 37254423}
  m_Enabled: 1
  serializedVersion: 2
  m_NearClipPlane: -1.5
  m_FarClipPlane: 6
  m_FieldOfView: 60
  m_AspectRatio: 1
  m_Orthographic: 1
  m_OrthographicSize: 50
  m_Material: {fileID: 2100000, guid: 3752ec1b97d187b4ea98f391a7fd9e65, type: 2}
  m_IgnoreLayers:
    serializedVersion: 2
    m_Bits: 16
--- !u!1 &66753032
GameObject:
  m_ObjectHideFlags: 0
  m_PrefabParentObject: {fileID: 0}
  m_PrefabInternal: {fileID: 0}
  serializedVersion: 5
  m_Component:
  - component: {fileID: 66753033}
  - component: {fileID: 66753034}
  m_Layer: 0
  m_Name: ColorPicker2
  m_TagString: Untagged
  m_Icon: {fileID: 0}
  m_NavMeshLayer: 0
  m_StaticEditorFlags: 0
  m_IsActive: 1
--- !u!4 &66753033
Transform:
  m_ObjectHideFlags: 0
  m_PrefabParentObject: {fileID: 0}
  m_PrefabInternal: {fileID: 0}
  m_GameObject: {fileID: 66753032}
  m_LocalRotation: {x: 0, y: 0, z: 0, w: 1}
  m_LocalPosition: {x: 0, y: 0, z: 0}
  m_LocalScale: {x: 1, y: 1, z: 1}
  m_Children: []
  m_Father: {fileID: 1056037390}
  m_RootOrder: 1
  m_LocalEulerAnglesHint: {x: 0, y: 0, z: 0}
--- !u!114 &66753034
MonoBehaviour:
  m_ObjectHideFlags: 0
  m_PrefabParentObject: {fileID: 0}
  m_PrefabInternal: {fileID: 0}
  m_GameObject: {fileID: 66753032}
  m_Enabled: 1
  m_EditorHideFlags: 0
  m_Script: {fileID: 11500000, guid: d486d41c2073aaf4d8051b949599b207, type: 3}
  m_Name: 
  m_EditorClassIdentifier: 
  colorSpace: {fileID: 2800000, guid: 48058c3b52557df42bd88cf1860a9fa2, type: 3}
  alphaGradient: {fileID: 2800000, guid: 489a8d8d475f05249804746275821bdd, type: 3}
  Title: 4661646520436f6c6f72
  startPos: {x: 10, y: 280}
  receiver: {fileID: 1056037388}
  colorSetFunctionName: 4f6e536574436f6c6f7246616465
  colorGetFunctionName: 4f6e476574436f6c6f7246616465
  useExternalDrawer: 0
  drawOrder: 0
--- !u!1 &163888794
GameObject:
  m_ObjectHideFlags: 0
  m_PrefabParentObject: {fileID: 0}
  m_PrefabInternal: {fileID: 0}
  serializedVersion: 5
  m_Component:
  - component: {fileID: 163888796}
  - component: {fileID: 163888795}
  m_Layer: 0
  m_Name: ColorPicker1
  m_TagString: Untagged
  m_Icon: {fileID: 0}
  m_NavMeshLayer: 0
  m_StaticEditorFlags: 0
  m_IsActive: 1
--- !u!114 &163888795
MonoBehaviour:
  m_ObjectHideFlags: 0
  m_PrefabParentObject: {fileID: 0}
  m_PrefabInternal: {fileID: 0}
  m_GameObject: {fileID: 163888794}
  m_Enabled: 1
  m_EditorHideFlags: 0
  m_Script: {fileID: 11500000, guid: d486d41c2073aaf4d8051b949599b207, type: 3}
  m_Name: 
  m_EditorClassIdentifier: 
  colorSpace: {fileID: 2800000, guid: 48058c3b52557df42bd88cf1860a9fa2, type: 3}
  alphaGradient: {fileID: 2800000, guid: 489a8d8d475f05249804746275821bdd, type: 3}
  Title: 4d61696e20436f6c6f72
  startPos: {x: 10, y: 250}
  receiver: {fileID: 1056037388}
  colorSetFunctionName: 4f6e536574436f6c6f724d61696e
  colorGetFunctionName: 4f6e476574436f6c6f724d61696e
  useExternalDrawer: 0
  drawOrder: 0
--- !u!4 &163888796
Transform:
  m_ObjectHideFlags: 0
  m_PrefabParentObject: {fileID: 0}
  m_PrefabInternal: {fileID: 0}
  m_GameObject: {fileID: 163888794}
  m_LocalRotation: {x: 0, y: 0, z: 0, w: 1}
  m_LocalPosition: {x: 0, y: 0, z: 0}
  m_LocalScale: {x: 1, y: 1, z: 1}
  m_Children: []
  m_Father: {fileID: 1056037390}
  m_RootOrder: 0
  m_LocalEulerAnglesHint: {x: 0, y: 0, z: 0}
--- !u!1 &240113618
GameObject:
  m_ObjectHideFlags: 0
  m_PrefabParentObject: {fileID: 105536, guid: dc7adf126c171bd42b228317fa2c5b85, type: 2}
  m_PrefabInternal: {fileID: 2027826186}
  serializedVersion: 5
  m_Component:
  - component: {fileID: 240113619}
  m_Layer: 4
  m_Name: River
  m_TagString: Untagged
  m_Icon: {fileID: 0}
  m_NavMeshLayer: 0
  m_StaticEditorFlags: 0
  m_IsActive: 1
--- !u!4 &240113619
Transform:
  m_ObjectHideFlags: 0
  m_PrefabParentObject: {fileID: 405536, guid: dc7adf126c171bd42b228317fa2c5b85, type: 2}
  m_PrefabInternal: {fileID: 2027826186}
  m_GameObject: {fileID: 240113618}
  m_LocalRotation: {x: 0, y: 0, z: 0, w: 1}
  m_LocalPosition: {x: 10, y: 3.3, z: 10}
  m_LocalScale: {x: 20, y: 1.3, z: 20}
  m_Children:
  - {fileID: 956528548}
  - {fileID: 666142676}
  m_Father: {fileID: 0}
  m_RootOrder: 6
  m_LocalEulerAnglesHint: {x: 0, y: 0, z: 0}
--- !u!1 &353215116
GameObject:
  m_ObjectHideFlags: 0
  m_PrefabParentObject: {fileID: 105538, guid: dc7adf126c171bd42b228317fa2c5b85, type: 2}
  m_PrefabInternal: {fileID: 2027826186}
  serializedVersion: 5
  m_Component:
  - component: {fileID: 353215117}
  - component: {fileID: 353215119}
  - component: {fileID: 353215118}
  m_Layer: 4
  m_Name: InfiniteWaterMesh
  m_TagString: Untagged
  m_Icon: {fileID: 0}
  m_NavMeshLayer: 0
  m_StaticEditorFlags: 0
  m_IsActive: 1
--- !u!4 &353215117
Transform:
  m_ObjectHideFlags: 0
  m_PrefabParentObject: {fileID: 405538, guid: dc7adf126c171bd42b228317fa2c5b85, type: 2}
  m_PrefabInternal: {fileID: 2027826186}
  m_GameObject: {fileID: 353215116}
  m_LocalRotation: {x: 0, y: 0, z: 0, w: 1}
  m_LocalPosition: {x: 0, y: 0, z: 0}
  m_LocalScale: {x: 1, y: 1, z: 1}
  m_Children: []
  m_Father: {fileID: 666142676}
  m_RootOrder: 1
  m_LocalEulerAnglesHint: {x: 0, y: 0, z: 0}
--- !u!23 &353215118
MeshRenderer:
  m_ObjectHideFlags: 0
  m_PrefabParentObject: {fileID: 2305534, guid: dc7adf126c171bd42b228317fa2c5b85,
    type: 2}
  m_PrefabInternal: {fileID: 2027826186}
  m_GameObject: {fileID: 353215116}
  m_Enabled: 1
  m_CastShadows: 1
  m_ReceiveShadows: 1
  m_MotionVectors: 1
  m_LightProbeUsage: 0
  m_ReflectionProbeUsage: 1
  m_Materials:
  - {fileID: 2100000, guid: af4b7a829950f8342a2295d9c85904c5, type: 2}
  m_StaticBatchInfo:
    firstSubMesh: 0
    subMeshCount: 0
  m_StaticBatchRoot: {fileID: 0}
  m_ProbeAnchor: {fileID: 0}
  m_LightProbeVolumeOverride: {fileID: 0}
  m_ScaleInLightmap: 1
  m_PreserveUVs: 0
  m_IgnoreNormalsForChartDetection: 0
  m_ImportantGI: 0
  m_SelectedEditorRenderState: 3
  m_MinimumChartSize: 4
  m_AutoUVMaxDistance: 0.5
  m_AutoUVMaxAngle: 89
  m_LightmapParameters: {fileID: 0}
  m_SortingLayerID: 0
  m_SortingOrder: 0
--- !u!33 &353215119
MeshFilter:
  m_ObjectHideFlags: 0
  m_PrefabParentObject: {fileID: 3305534, guid: dc7adf126c171bd42b228317fa2c5b85,
    type: 2}
  m_PrefabInternal: {fileID: 2027826186}
  m_GameObject: {fileID: 353215116}
  m_Mesh: {fileID: 4300002, guid: 72897406321b80b44938817ebea6962c, type: 3}
--- !u!1 &381785376
GameObject:
  m_ObjectHideFlags: 0
  m_PrefabParentObject: {fileID: 0}
  m_PrefabInternal: {fileID: 0}
  serializedVersion: 5
  m_Component:
  - component: {fileID: 381785377}
  - component: {fileID: 381785378}
  m_Layer: 0
  m_Name: Camera
  m_TagString: Untagged
  m_Icon: {fileID: 0}
  m_NavMeshLayer: 0
  m_StaticEditorFlags: 0
  m_IsActive: 1
--- !u!4 &381785377
Transform:
  m_ObjectHideFlags: 0
  m_PrefabParentObject: {fileID: 0}
  m_PrefabInternal: {fileID: 0}
  m_GameObject: {fileID: 381785376}
  m_LocalRotation: {x: 0, y: 0, z: 0, w: 1}
  m_LocalPosition: {x: 12, y: 0.6, z: -0.7}
  m_LocalScale: {x: 1, y: 1, z: 1}
  m_Children:
  - {fileID: 698280446}
  m_Father: {fileID: 0}
  m_RootOrder: 2
  m_LocalEulerAnglesHint: {x: 0, y: 0, z: 0}
--- !u!114 &381785378
MonoBehaviour:
  m_ObjectHideFlags: 0
  m_PrefabParentObject: {fileID: 0}
  m_PrefabInternal: {fileID: 0}
  m_GameObject: {fileID: 381785376}
  m_Enabled: 1
  m_EditorHideFlags: 0
  m_Script: {fileID: 11500000, guid: d0331f722dff19a4aa18d65e84538c11, type: 3}
  m_Name: 
  m_EditorClassIdentifier: 
  Target: {fileID: 601722113}
--- !u!1 &601722113
GameObject:
  m_ObjectHideFlags: 0
  m_PrefabParentObject: {fileID: 177972, guid: 746a18aa91b03c14f9560a0140037577, type: 2}
  m_PrefabInternal: {fileID: 1635400465}
  serializedVersion: 5
  m_Component:
  - component: {fileID: 601722114}
  - component: {fileID: 601722120}
  - component: {fileID: 601722119}
  - component: {fileID: 601722118}
  - component: {fileID: 601722117}
  - component: {fileID: 601722116}
  - component: {fileID: 601722115}
  m_Layer: 4
  m_Name: Boat
  m_TagString: Untagged
  m_Icon: {fileID: 0}
  m_NavMeshLayer: 0
  m_StaticEditorFlags: 0
  m_IsActive: 1
--- !u!4 &601722114
Transform:
  m_ObjectHideFlags: 0
  m_PrefabParentObject: {fileID: 477972, guid: 746a18aa91b03c14f9560a0140037577, type: 2}
  m_PrefabInternal: {fileID: 1635400465}
  m_GameObject: {fileID: 601722113}
  m_LocalRotation: {x: -0.03794185, y: -0.64183164, z: -0.009068372, w: 0.7658527}
  m_LocalPosition: {x: 9, y: 2.7, z: 5.57}
  m_LocalScale: {x: 1, y: 1, z: 1}
  m_Children:
  - {fileID: 734248967}
  - {fileID: 1779099704}
  m_Father: {fileID: 0}
  m_RootOrder: 3
  m_LocalEulerAnglesHint: {x: 0, y: 0, z: 0}
--- !u!114 &601722115
MonoBehaviour:
  m_ObjectHideFlags: 0
  m_PrefabParentObject: {fileID: 11477972, guid: 746a18aa91b03c14f9560a0140037577,
    type: 2}
  m_PrefabInternal: {fileID: 1635400465}
  m_GameObject: {fileID: 601722113}
  m_Enabled: 1
  m_EditorHideFlags: 0
  m_Script: {fileID: 11500000, guid: 6d847570c4e74214eba4a998dbbaae50, type: 3}
  m_Name: 
  m_EditorClassIdentifier: 
--- !u!114 &601722116
MonoBehaviour:
  m_ObjectHideFlags: 0
  m_PrefabParentObject: {fileID: 11477970, guid: 746a18aa91b03c14f9560a0140037577,
    type: 2}
  m_PrefabInternal: {fileID: 1635400465}
  m_GameObject: {fileID: 601722113}
  m_Enabled: 1
  m_EditorHideFlags: 0
  m_Script: {fileID: 11500000, guid: 9a23d578888fcc045869ef2a2dd2a0a6, type: 3}
  m_Name: 
  m_EditorClassIdentifier: 
  Density: 700
  SlicesPerAxis: 8
  IsConcave: 0
  VoxelsLimit: 16
  WaveVelocity: 0.05
--- !u!54 &601722117
Rigidbody:
  m_ObjectHideFlags: 0
  m_PrefabParentObject: {fileID: 5477974, guid: 746a18aa91b03c14f9560a0140037577,
    type: 2}
  m_PrefabInternal: {fileID: 1635400465}
  m_GameObject: {fileID: 601722113}
  serializedVersion: 2
  m_Mass: 1
  m_Drag: 0
  m_AngularDrag: 0.05
  m_UseGravity: 1
  m_IsKinematic: 0
  m_Interpolate: 0
  m_Constraints: 0
  m_CollisionDetection: 0
--- !u!64 &601722118
MeshCollider:
  m_ObjectHideFlags: 0
  m_PrefabParentObject: {fileID: 6477974, guid: 746a18aa91b03c14f9560a0140037577,
    type: 2}
  m_PrefabInternal: {fileID: 1635400465}
  m_GameObject: {fileID: 601722113}
  m_Material: {fileID: 0}
  m_IsTrigger: 0
  m_Enabled: 1
  serializedVersion: 2
  m_Convex: 1
  m_InflateMesh: 0
  m_SkinWidth: 0.01
  m_Mesh: {fileID: 4300000, guid: 129ddc4263912ff47908ec32d3a5c79e, type: 3}
--- !u!23 &601722119
MeshRenderer:
  m_ObjectHideFlags: 0
  m_PrefabParentObject: {fileID: 2377974, guid: 746a18aa91b03c14f9560a0140037577,
    type: 2}
  m_PrefabInternal: {fileID: 1635400465}
  m_GameObject: {fileID: 601722113}
  m_Enabled: 1
  m_CastShadows: 1
  m_ReceiveShadows: 1
  m_MotionVectors: 1
  m_LightProbeUsage: 0
  m_ReflectionProbeUsage: 1
  m_Materials:
  - {fileID: 2100000, guid: df9f15c7c772ca24c826cda7d4e73fdc, type: 2}
  m_StaticBatchInfo:
    firstSubMesh: 0
    subMeshCount: 0
  m_StaticBatchRoot: {fileID: 0}
  m_ProbeAnchor: {fileID: 0}
  m_LightProbeVolumeOverride: {fileID: 0}
  m_ScaleInLightmap: 1
  m_PreserveUVs: 0
  m_IgnoreNormalsForChartDetection: 0
  m_ImportantGI: 0
  m_SelectedEditorRenderState: 3
  m_MinimumChartSize: 4
  m_AutoUVMaxDistance: 0.5
  m_AutoUVMaxAngle: 89
  m_LightmapParameters: {fileID: 0}
  m_SortingLayerID: 0
  m_SortingOrder: 0
--- !u!33 &601722120
MeshFilter:
  m_ObjectHideFlags: 0
  m_PrefabParentObject: {fileID: 3377974, guid: 746a18aa91b03c14f9560a0140037577,
    type: 2}
  m_PrefabInternal: {fileID: 1635400465}
  m_GameObject: {fileID: 601722113}
  m_Mesh: {fileID: 4300000, guid: 129ddc4263912ff47908ec32d3a5c79e, type: 3}
--- !u!1 &666142675
GameObject:
  m_ObjectHideFlags: 0
  m_PrefabParentObject: {fileID: 105540, guid: dc7adf126c171bd42b228317fa2c5b85, type: 2}
  m_PrefabInternal: {fileID: 2027826186}
  serializedVersion: 5
  m_Component:
  - component: {fileID: 666142676}
  - component: {fileID: 666142682}
  - component: {fileID: 666142681}
  - component: {fileID: 666142683}
  - component: {fileID: 666142684}
  - component: {fileID: 666142680}
  - component: {fileID: 666142679}
  - component: {fileID: 666142678}
  - component: {fileID: 666142685}
  - component: {fileID: 666142677}
  - component: {fileID: 666142686}
  m_Layer: 4
  m_Name: Water
  m_TagString: Untagged
  m_Icon: {fileID: 0}
  m_NavMeshLayer: 0
  m_StaticEditorFlags: 0
  m_IsActive: 1
--- !u!4 &666142676
Transform:
  m_ObjectHideFlags: 0
  m_PrefabParentObject: {fileID: 405540, guid: dc7adf126c171bd42b228317fa2c5b85, type: 2}
  m_PrefabInternal: {fileID: 2027826186}
  m_GameObject: {fileID: 666142675}
  m_LocalRotation: {x: 0, y: 0, z: 0, w: 1}
  m_LocalPosition: {x: 0, y: 0, z: 0}
  m_LocalScale: {x: 1, y: 1, z: 1}
  m_Children:
  - {fileID: 1722809020}
  - {fileID: 353215117}
  - {fileID: 1115355795}
  - {fileID: 1345662926}
  - {fileID: 37254424}
  m_Father: {fileID: 240113619}
  m_RootOrder: 1
  m_LocalEulerAnglesHint: {x: 0, y: 0, z: 0}
--- !u!114 &666142677
MonoBehaviour:
  m_ObjectHideFlags: 0
  m_PrefabParentObject: {fileID: 11415144, guid: dc7adf126c171bd42b228317fa2c5b85,
    type: 2}
  m_PrefabInternal: {fileID: 2027826186}
  m_GameObject: {fileID: 666142675}
  m_Enabled: 1
  m_EditorHideFlags: 0
  m_Script: {fileID: 11500000, guid: 3210dce5a79129d4f80b45defa1d8c8f, type: 3}
  m_Name: 
  m_EditorClassIdentifier: 
  GlobalMatrixNames:
  - 5f70726f6a6563746976654d6174725761766573
  ProjectiveTranforms:
  - {fileID: 1345662926}
  UpdateOnStart: 0
  CanUpdate: 1
--- !u!114 &666142678
MonoBehaviour:
  m_ObjectHideFlags: 0
  m_PrefabParentObject: {fileID: 11405538, guid: dc7adf126c171bd42b228317fa2c5b85,
    type: 2}
  m_PrefabInternal: {fileID: 2027826186}
  m_GameObject: {fileID: 666142675}
  m_Enabled: 1
  m_EditorHideFlags: 0
  m_Script: {fileID: 11500000, guid: 85f62959d57aaa64886ff4aabbddc3d6, type: 3}
  m_Name: 
  m_EditorClassIdentifier: 
  m_ClipPlaneOffset: 0.07
  CullingMask: {}
  HDR: 0
  OcclusionCulling: 1
  TextureScale: 1
  RenderTextureFormat: 0
  FilterMode: 0
  RenderingPath: 0
  UseRealtimeUpdate: 1
  FPSWhenMoveCamera: 40
  FPSWhenStaticCamera: 20
--- !u!114 &666142679
MonoBehaviour:
  m_ObjectHideFlags: 0
  m_PrefabParentObject: {fileID: 11405540, guid: dc7adf126c171bd42b228317fa2c5b85,
    type: 2}
  m_PrefabInternal: {fileID: 2027826186}
  m_GameObject: {fileID: 666142675}
  m_Enabled: 1
  m_EditorHideFlags: 0
  m_Script: {fileID: 11500000, guid: f64192f69721a5c4183d5a22c53d08df, type: 3}
  m_Name: 
  m_EditorClassIdentifier: 
  UpdateFPS: 60
  Multithreading: 1
  DisplacementResolution: 128
  Damping: 0.005
  Speed: 0.5
  UseSmoothWaves: 0
  UseProjectedWaves: 1
  CutOutTexture: {fileID: 2800000, guid: 367916ea6c6dcc9429b55828b1cc3135, type: 3}
--- !u!114 &666142680
MonoBehaviour:
  m_ObjectHideFlags: 0
  m_PrefabParentObject: {fileID: 11405542, guid: dc7adf126c171bd42b228317fa2c5b85,
    type: 2}
  m_PrefabInternal: {fileID: 2027826186}
  m_GameObject: {fileID: 666142675}
  m_Enabled: 1
  m_EditorHideFlags: 0
  m_Script: {fileID: 11500000, guid: 77874855b9bb0ff4a9cb1bfad39563f2, type: 3}
  m_Name: 
  m_EditorClassIdentifier: 
  CurrenCamera: {fileID: 381785376}
--- !u!23 &666142681
MeshRenderer:
  m_ObjectHideFlags: 0
  m_PrefabParentObject: {fileID: 2305536, guid: dc7adf126c171bd42b228317fa2c5b85,
    type: 2}
  m_PrefabInternal: {fileID: 2027826186}
  m_GameObject: {fileID: 666142675}
  m_Enabled: 1
  m_CastShadows: 0
  m_ReceiveShadows: 0
  m_MotionVectors: 1
  m_LightProbeUsage: 0
  m_ReflectionProbeUsage: 1
  m_Materials:
  - {fileID: 2100000, guid: af4b7a829950f8342a2295d9c85904c5, type: 2}
  m_StaticBatchInfo:
    firstSubMesh: 0
    subMeshCount: 0
  m_StaticBatchRoot: {fileID: 0}
  m_ProbeAnchor: {fileID: 0}
  m_LightProbeVolumeOverride: {fileID: 0}
  m_ScaleInLightmap: 1
  m_PreserveUVs: 0
  m_IgnoreNormalsForChartDetection: 0
  m_ImportantGI: 0
  m_SelectedEditorRenderState: 3
  m_MinimumChartSize: 4
  m_AutoUVMaxDistance: 0.5
  m_AutoUVMaxAngle: 89
  m_LightmapParameters: {fileID: 0}
  m_SortingLayerID: 0
  m_SortingOrder: 0
--- !u!33 &666142682
MeshFilter:
  m_ObjectHideFlags: 0
  m_PrefabParentObject: {fileID: 3305536, guid: dc7adf126c171bd42b228317fa2c5b85,
    type: 2}
  m_PrefabInternal: {fileID: 2027826186}
  m_GameObject: {fileID: 666142675}
  m_Mesh: {fileID: 4300004, guid: ff73beb2fd0acf643bc95998c5687827, type: 3}
--- !u!65 &666142683
BoxCollider:
  m_ObjectHideFlags: 0
  m_PrefabParentObject: {fileID: 6505534, guid: dc7adf126c171bd42b228317fa2c5b85,
    type: 2}
  m_PrefabInternal: {fileID: 2027826186}
  m_GameObject: {fileID: 666142675}
  m_Material: {fileID: 0}
  m_IsTrigger: 1
  m_Enabled: 1
  serializedVersion: 2
  m_Size: {x: 1, y: 2, z: 1}
  m_Center: {x: 0, y: -0.93, z: 0}
--- !u!54 &666142684
Rigidbody:
  m_ObjectHideFlags: 0
  m_PrefabParentObject: {fileID: 5405534, guid: dc7adf126c171bd42b228317fa2c5b85,
    type: 2}
  m_PrefabInternal: {fileID: 2027826186}
  m_GameObject: {fileID: 666142675}
  serializedVersion: 2
  m_Mass: 1
  m_Drag: 0
  m_AngularDrag: 0.05
  m_UseGravity: 0
  m_IsKinematic: 1
  m_Interpolate: 0
  m_Constraints: 0
  m_CollisionDetection: 0
--- !u!114 &666142685
MonoBehaviour:
  m_ObjectHideFlags: 0
  m_PrefabParentObject: {fileID: 11405544, guid: dc7adf126c171bd42b228317fa2c5b85,
    type: 2}
  m_PrefabInternal: {fileID: 2027826186}
  m_GameObject: {fileID: 666142675}
  m_Enabled: 1
  m_EditorHideFlags: 0
  m_Script: {fileID: 11500000, guid: 65972d769d3db0a4bbb2ea5da0d533b2, type: 3}
  m_Name: 
  m_EditorClassIdentifier: 
--- !u!114 &666142686
MonoBehaviour:
  m_ObjectHideFlags: 0
  m_PrefabParentObject: {fileID: 11410436, guid: dc7adf126c171bd42b228317fa2c5b85,
    type: 2}
  m_PrefabInternal: {fileID: 2027826186}
  m_GameObject: {fileID: 666142675}
  m_Enabled: 1
  m_EditorHideFlags: 0
  m_Script: {fileID: 11500000, guid: 17a74b7e29bdf994a95a65299c457ced, type: 3}
  m_Name: 
  m_EditorClassIdentifier: 
  FogColor:
    r: 0.23194203
    g: 0.4191499
    b: 0.4852941
    a: 1
  FogDensity: 0.1
  UseSunShafts: 1
  SunShuftsIntensity: 0.8
  SunShuftsScreenBlendMode: 1
--- !u!1 &698280441
GameObject:
  m_ObjectHideFlags: 0
  m_PrefabParentObject: {fileID: 0}
  m_PrefabInternal: {fileID: 0}
  serializedVersion: 5
  m_Component:
  - component: {fileID: 698280446}
  - component: {fileID: 698280445}
  - component: {fileID: 698280444}
  - component: {fileID: 698280443}
  - component: {fileID: 698280442}
  - component: {fileID: 698280447}
  m_Layer: 0
  m_Name: Main Camera
  m_TagString: MainCamera
  m_Icon: {fileID: 0}
  m_NavMeshLayer: 0
  m_StaticEditorFlags: 0
  m_IsActive: 1
--- !u!81 &698280442
AudioListener:
  m_ObjectHideFlags: 0
  m_PrefabParentObject: {fileID: 0}
  m_PrefabInternal: {fileID: 0}
  m_GameObject: {fileID: 698280441}
  m_Enabled: 1
--- !u!124 &698280443
Behaviour:
  m_ObjectHideFlags: 0
  m_PrefabParentObject: {fileID: 0}
  m_PrefabInternal: {fileID: 0}
  m_GameObject: {fileID: 698280441}
  m_Enabled: 1
--- !u!92 &698280444
Behaviour:
  m_ObjectHideFlags: 0
  m_PrefabParentObject: {fileID: 0}
  m_PrefabInternal: {fileID: 0}
  m_GameObject: {fileID: 698280441}
  m_Enabled: 1
--- !u!20 &698280445
Camera:
  m_ObjectHideFlags: 0
  m_PrefabParentObject: {fileID: 0}
  m_PrefabInternal: {fileID: 0}
  m_GameObject: {fileID: 698280441}
  m_Enabled: 1
  serializedVersion: 2
  m_ClearFlags: 1
  m_BackGroundColor: {r: 0.19215687, g: 0.3019608, b: 0.4745098, a: 0.019607844}
  m_NormalizedViewPortRect:
    serializedVersion: 2
    x: 0
    y: 0
    width: 1
    height: 1
  near clip plane: 0.3
  far clip plane: 1000
  field of view: 60
  orthographic: 0
  orthographic size: 5
  m_Depth: -1
  m_CullingMask:
    serializedVersion: 2
    m_Bits: 4294967295
  m_RenderingPath: -1
  m_TargetTexture: {fileID: 0}
  m_TargetDisplay: 0
  m_TargetEye: 3
  m_HDR: 1
  m_OcclusionCulling: 1
  m_StereoConvergence: 10
  m_StereoSeparation: 0.022
  m_StereoMirrorMode: 0
--- !u!4 &698280446
Transform:
  m_ObjectHideFlags: 0
  m_PrefabParentObject: {fileID: 0}
  m_PrefabInternal: {fileID: 0}
  m_GameObject: {fileID: 698280441}
  m_LocalRotation: {x: 0.25881907, y: 0, z: 0, w: 0.9659259}
  m_LocalPosition: {x: -1.5, y: 6, z: -9.7}
  m_LocalScale: {x: 1, y: 1, z: 1}
  m_Children: []
  m_Father: {fileID: 381785377}
  m_RootOrder: 0
  m_LocalEulerAnglesHint: {x: 0, y: 0, z: 0}
--- !u!114 &698280447
MonoBehaviour:
  m_ObjectHideFlags: 0
  m_PrefabParentObject: {fileID: 0}
  m_PrefabInternal: {fileID: 0}
  m_GameObject: {fileID: 698280441}
  m_Enabled: 1
  m_EditorHideFlags: 0
  m_Script: {fileID: 11500000, guid: b0d3436c6ae3e0a48b3cc97b63e28194, type: 3}
  m_Name: 
  m_EditorClassIdentifier: 
  target: {fileID: 601722114}
  distance: 12
  xSpeed: 250
  ySpeed: 120
  yMinLimit: -20
  yMaxLimit: 80
--- !u!1 &734248964
GameObject:
  m_ObjectHideFlags: 0
  m_PrefabParentObject: {fileID: 177970, guid: 746a18aa91b03c14f9560a0140037577, type: 2}
  m_PrefabInternal: {fileID: 1635400465}
  serializedVersion: 5
  m_Component:
  - component: {fileID: 734248967}
  - component: {fileID: 734248966}
  - component: {fileID: 734248965}
  m_Layer: 4
  m_Name: RippleCreator1
  m_TagString: Untagged
  m_Icon: {fileID: 0}
  m_NavMeshLayer: 0
  m_StaticEditorFlags: 0
  m_IsActive: 1
--- !u!114 &734248965
MonoBehaviour:
  m_ObjectHideFlags: 0
  m_PrefabParentObject: {fileID: 11477968, guid: 746a18aa91b03c14f9560a0140037577,
    type: 2}
  m_PrefabInternal: {fileID: 1635400465}
  m_GameObject: {fileID: 734248964}
  m_Enabled: 1
  m_EditorHideFlags: 0
  m_Script: {fileID: 11500000, guid: a36453e121acaab43996e5e65b7ff4b3, type: 3}
  m_Name: 
  m_EditorClassIdentifier: 
  IsReversedRipple: 0
  RippleStrenght: 0.3
  MaxVelocity: 2
  RandomRipplesInterval: 0.3
  reversedRippleDelay: 0.3
  SplashEffect: {fileID: 0}
  SplashEffectMoved: {fileID: 138562, guid: b10c4612fa59ff74891d70da2af48027, type: 2}
  SplashAudioSource: {fileID: 0}
  splashSizeMultiplier: 1.75
--- !u!135 &734248966
SphereCollider:
  m_ObjectHideFlags: 0
  m_PrefabParentObject: {fileID: 13577972, guid: 746a18aa91b03c14f9560a0140037577,
    type: 2}
  m_PrefabInternal: {fileID: 1635400465}
  m_GameObject: {fileID: 734248964}
  m_Material: {fileID: 0}
  m_IsTrigger: 1
  m_Enabled: 1
  serializedVersion: 2
  m_Radius: 0.8
  m_Center: {x: 0, y: 0, z: 0}
--- !u!4 &734248967
Transform:
  m_ObjectHideFlags: 0
  m_PrefabParentObject: {fileID: 477970, guid: 746a18aa91b03c14f9560a0140037577, type: 2}
  m_PrefabInternal: {fileID: 1635400465}
  m_GameObject: {fileID: 734248964}
  m_LocalRotation: {x: 0, y: 0, z: 0, w: 1}
  m_LocalPosition: {x: -1.2, y: 0.2, z: 0.75}
  m_LocalScale: {x: 1, y: 1, z: 1}
  m_Children: []
  m_Father: {fileID: 601722114}
  m_RootOrder: 0
  m_LocalEulerAnglesHint: {x: 0, y: 0, z: 0}
--- !u!1 &956528547
GameObject:
  m_ObjectHideFlags: 0
  m_PrefabParentObject: {fileID: 105542, guid: dc7adf126c171bd42b228317fa2c5b85, type: 2}
  m_PrefabInternal: {fileID: 2027826186}
  serializedVersion: 5
  m_Component:
  - component: {fileID: 956528548}
  m_Layer: 4
  m_Name: ProjectorCausticScale
  m_TagString: Untagged
  m_Icon: {fileID: 0}
  m_NavMeshLayer: 0
  m_StaticEditorFlags: 0
  m_IsActive: 1
--- !u!4 &956528548
Transform:
  m_ObjectHideFlags: 0
  m_PrefabParentObject: {fileID: 405542, guid: dc7adf126c171bd42b228317fa2c5b85, type: 2}
  m_PrefabInternal: {fileID: 2027826186}
  m_GameObject: {fileID: 956528547}
  m_LocalRotation: {x: 0, y: 0, z: 0, w: 1}
  m_LocalPosition: {x: -0.5, y: 0, z: -0.5}
  m_LocalScale: {x: 0.1837509, y: 3.062515, z: 0.1837509}
  m_Children: []
  m_Father: {fileID: 240113619}
  m_RootOrder: 0
  m_LocalEulerAnglesHint: {x: 0, y: 0, z: 0}
--- !u!1 &956830190
GameObject:
  m_ObjectHideFlags: 0
  m_PrefabParentObject: {fileID: 0}
  m_PrefabInternal: {fileID: 0}
  serializedVersion: 5
  m_Component:
  - component: {fileID: 956830191}
  m_Layer: 0
  m_Name: Offset
  m_TagString: Untagged
  m_Icon: {fileID: 0}
  m_NavMeshLayer: 0
  m_StaticEditorFlags: 0
  m_IsActive: 1
--- !u!4 &956830191
Transform:
  m_ObjectHideFlags: 0
  m_PrefabParentObject: {fileID: 0}
  m_PrefabInternal: {fileID: 0}
  m_GameObject: {fileID: 956830190}
  m_LocalRotation: {x: -0.6830127, y: -0.18301277, z: -0.18301277, w: 0.6830127}
  m_LocalPosition: {x: 0, y: 0, z: 0}
  m_LocalScale: {x: 1, y: 1, z: 1}
  m_Children:
  - {fileID: 2061805686}
  m_Father: {fileID: 1575200984}
  m_RootOrder: 0
  m_LocalEulerAnglesHint: {x: 0, y: 0, z: 0}
--- !u!1 &1056037388
GameObject:
  m_ObjectHideFlags: 0
  m_PrefabParentObject: {fileID: 0}
  m_PrefabInternal: {fileID: 0}
  serializedVersion: 5
  m_Component:
  - component: {fileID: 1056037390}
  - component: {fileID: 1056037389}
  m_Layer: 0
  m_Name: DemoGUI
  m_TagString: Untagged
  m_Icon: {fileID: 0}
  m_NavMeshLayer: 0
  m_StaticEditorFlags: 0
  m_IsActive: 1
--- !u!114 &1056037389
MonoBehaviour:
  m_ObjectHideFlags: 0
  m_PrefabParentObject: {fileID: 0}
  m_PrefabInternal: {fileID: 0}
  m_GameObject: {fileID: 1056037388}
  m_Enabled: 1
  m_EditorHideFlags: 0
  m_Script: {fileID: 11500000, guid: 17cce5143d2518245ba6037236caf815, type: 3}
  m_Name: 
  m_EditorClassIdentifier: 
  UpdateInterval: 1
  MaxScenes: 4
  IsMobileScene: 0
  Sun: {fileID: 2061805685}
  SunTransform: {fileID: 1575200983}
  Boat: {fileID: 601722113}
  water1: {fileID: 0}
  water2: {fileID: 0}
  angle: 130
--- !u!4 &1056037390
Transform:
  m_ObjectHideFlags: 0
  m_PrefabParentObject: {fileID: 0}
  m_PrefabInternal: {fileID: 0}
  m_GameObject: {fileID: 1056037388}
  m_LocalRotation: {x: 0, y: 0, z: 0, w: 1}
  m_LocalPosition: {x: 0, y: 0, z: 0}
  m_LocalScale: {x: 1, y: 1, z: 1}
  m_Children:
  - {fileID: 163888796}
  - {fileID: 66753033}
  m_Father: {fileID: 0}
  m_RootOrder: 4
  m_LocalEulerAnglesHint: {x: 0, y: 0, z: 0}
--- !u!1 &1115355794
GameObject:
  m_ObjectHideFlags: 0
  m_PrefabParentObject: {fileID: 103096, guid: dc7adf126c171bd42b228317fa2c5b85, type: 2}
  m_PrefabInternal: {fileID: 2027826186}
  serializedVersion: 5
  m_Component:
  - component: {fileID: 1115355795}
  - component: {fileID: 1115355798}
  - component: {fileID: 1115355797}
  m_Layer: 4
  m_Name: WaterLightWaves
  m_TagString: Untagged
  m_Icon: {fileID: 0}
  m_NavMeshLayer: 0
  m_StaticEditorFlags: 0
  m_IsActive: 1
--- !u!4 &1115355795
Transform:
  m_ObjectHideFlags: 0
  m_PrefabParentObject: {fileID: 403096, guid: dc7adf126c171bd42b228317fa2c5b85, type: 2}
  m_PrefabInternal: {fileID: 2027826186}
  m_GameObject: {fileID: 1115355794}
  m_LocalRotation: {x: 0.7071068, y: 0, z: 0, w: 0.7071068}
  m_LocalPosition: {x: 0, y: -0.2, z: 0}
  m_LocalScale: {x: 200, y: 200, z: 1}
  m_Children: []
  m_Father: {fileID: 666142676}
  m_RootOrder: 2
  m_LocalEulerAnglesHint: {x: 0, y: 0, z: 0}
--- !u!23 &1115355797
MeshRenderer:
  m_ObjectHideFlags: 0
  m_PrefabParentObject: {fileID: 2303096, guid: dc7adf126c171bd42b228317fa2c5b85,
    type: 2}
  m_PrefabInternal: {fileID: 2027826186}
  m_GameObject: {fileID: 1115355794}
  m_Enabled: 1
  m_CastShadows: 1
  m_ReceiveShadows: 1
  m_MotionVectors: 1
  m_LightProbeUsage: 0
  m_ReflectionProbeUsage: 1
  m_Materials:
  - {fileID: 2100000, guid: 002ac4035209d48468d81610e769e669, type: 2}
  m_StaticBatchInfo:
    firstSubMesh: 0
    subMeshCount: 0
  m_StaticBatchRoot: {fileID: 0}
  m_ProbeAnchor: {fileID: 0}
  m_LightProbeVolumeOverride: {fileID: 0}
  m_ScaleInLightmap: 1
  m_PreserveUVs: 0
  m_IgnoreNormalsForChartDetection: 0
  m_ImportantGI: 0
  m_SelectedEditorRenderState: 3
  m_MinimumChartSize: 4
  m_AutoUVMaxDistance: 0.5
  m_AutoUVMaxAngle: 89
  m_LightmapParameters: {fileID: 0}
  m_SortingLayerID: 0
  m_SortingOrder: 0
--- !u!33 &1115355798
MeshFilter:
  m_ObjectHideFlags: 0
  m_PrefabParentObject: {fileID: 3303096, guid: dc7adf126c171bd42b228317fa2c5b85,
    type: 2}
  m_PrefabInternal: {fileID: 2027826186}
  m_GameObject: {fileID: 1115355794}
  m_Mesh: {fileID: 10210, guid: 0000000000000000e000000000000000, type: 0}
--- !u!1 &1345662925
GameObject:
  m_ObjectHideFlags: 0
  m_PrefabParentObject: {fileID: 115144, guid: dc7adf126c171bd42b228317fa2c5b85, type: 2}
  m_PrefabInternal: {fileID: 2027826186}
  serializedVersion: 5
  m_Component:
  - component: {fileID: 1345662926}
  m_Layer: 4
  m_Name: ProjectorRipples
  m_TagString: Untagged
  m_Icon: {fileID: 0}
  m_NavMeshLayer: 0
  m_StaticEditorFlags: 0
  m_IsActive: 1
--- !u!4 &1345662926
Transform:
  m_ObjectHideFlags: 0
  m_PrefabParentObject: {fileID: 415144, guid: dc7adf126c171bd42b228317fa2c5b85, type: 2}
  m_PrefabInternal: {fileID: 2027826186}
  m_GameObject: {fileID: 1345662925}
  m_LocalRotation: {x: 0, y: 0, z: 0, w: 1}
  m_LocalPosition: {x: -10, y: 0, z: -10}
  m_LocalScale: {x: 20, y: 1, z: 20}
  m_Children: []
  m_Father: {fileID: 666142676}
  m_RootOrder: 3
  m_LocalEulerAnglesHint: {x: 0, y: 0, z: 0}
--- !u!1 &1553990408
GameObject:
  m_ObjectHideFlags: 0
  m_PrefabParentObject: {fileID: 0}
  m_PrefabInternal: {fileID: 0}
  serializedVersion: 5
  m_Component:
  - component: {fileID: 1553990411}
  - component: {fileID: 1553990410}
  - component: {fileID: 1553990409}
  m_Layer: 0
  m_Name: TerrainRiver
  m_TagString: Untagged
  m_Icon: {fileID: 0}
  m_NavMeshLayer: 0
  m_StaticEditorFlags: 4294967295
  m_IsActive: 1
--- !u!154 &1553990409
TerrainCollider:
  m_ObjectHideFlags: 0
  m_PrefabParentObject: {fileID: 0}
  m_PrefabInternal: {fileID: 0}
  m_GameObject: {fileID: 1553990408}
  m_Material: {fileID: 0}
  m_Enabled: 1
  m_TerrainData: {fileID: 15600000, guid: 814a288a74110c84ba498ad97df088d7, type: 2}
  m_EnableTreeColliders: 1
--- !u!218 &1553990410
Terrain:
  m_ObjectHideFlags: 0
  m_PrefabParentObject: {fileID: 0}
  m_PrefabInternal: {fileID: 0}
  m_GameObject: {fileID: 1553990408}
  m_Enabled: 1
  serializedVersion: 3
  m_TerrainData: {fileID: 15600000, guid: 814a288a74110c84ba498ad97df088d7, type: 2}
  m_TreeDistance: 2000
  m_TreeBillboardDistance: 50
  m_TreeCrossFadeLength: 5
  m_TreeMaximumFullLODCount: 50
  m_DetailObjectDistance: 80
  m_DetailObjectDensity: 1
  m_HeightmapPixelError: 5
  m_SplatMapDistance: 1000
  m_HeightmapMaximumLOD: 0
  m_CastShadows: 1
  m_DrawHeightmap: 1
  m_DrawTreesAndFoliage: 1
  m_ReflectionProbeUsage: 1
  m_MaterialType: 1
  m_LegacySpecular:
    serializedVersion: 2
    rgba: 4286545791
  m_LegacyShininess: 0.078125
  m_MaterialTemplate: {fileID: 0}
  m_BakeLightProbesForTrees: 1
  m_ScaleInLightmap: 1
  m_LightmapParameters: {fileID: 15203, guid: 0000000000000000f000000000000000, type: 0}
--- !u!4 &1553990411
Transform:
  m_ObjectHideFlags: 0
  m_PrefabParentObject: {fileID: 0}
  m_PrefabInternal: {fileID: 0}
  m_GameObject: {fileID: 1553990408}
  m_LocalRotation: {x: 0, y: 0, z: 0, w: 1}
  m_LocalPosition: {x: -500, y: -0.21, z: -500}
  m_LocalScale: {x: 1, y: 1, z: 1}
  m_Children: []
  m_Father: {fileID: 0}
  m_RootOrder: 1
  m_LocalEulerAnglesHint: {x: 0, y: 0, z: 0}
--- !u!1 &1575200983
GameObject:
  m_ObjectHideFlags: 0
  m_PrefabParentObject: {fileID: 0}
  m_PrefabInternal: {fileID: 0}
  serializedVersion: 5
  m_Component:
  - component: {fileID: 1575200984}
  m_Layer: 0
  m_Name: Sun
  m_TagString: Untagged
  m_Icon: {fileID: 0}
  m_NavMeshLayer: 0
  m_StaticEditorFlags: 0
  m_IsActive: 1
--- !u!4 &1575200984
Transform:
  m_ObjectHideFlags: 0
  m_PrefabParentObject: {fileID: 0}
  m_PrefabInternal: {fileID: 0}
  m_GameObject: {fileID: 1575200983}
  m_LocalRotation: {x: 0, y: 0, z: 0.86602545, w: 0.49999997}
  m_LocalPosition: {x: 0, y: 0, z: 0}
  m_LocalScale: {x: 1, y: 1, z: 1}
  m_Children:
  - {fileID: 956830191}
  m_Father: {fileID: 0}
  m_RootOrder: 0
  m_LocalEulerAnglesHint: {x: 0, y: 0, z: 0}
--- !u!1001 &1635400465
Prefab:
  m_ObjectHideFlags: 0
  serializedVersion: 2
  m_Modification:
    m_TransformParent: {fileID: 0}
    m_Modifications:
    - target: {fileID: 477972, guid: 746a18aa91b03c14f9560a0140037577, type: 2}
      propertyPath: m_LocalPosition.x
      value: 9
      objectReference: {fileID: 0}
    - target: {fileID: 477972, guid: 746a18aa91b03c14f9560a0140037577, type: 2}
      propertyPath: m_LocalPosition.y
      value: 2.70000005
      objectReference: {fileID: 0}
    - target: {fileID: 477972, guid: 746a18aa91b03c14f9560a0140037577, type: 2}
      propertyPath: m_LocalPosition.z
      value: 5.57000017
      objectReference: {fileID: 0}
    - target: {fileID: 477972, guid: 746a18aa91b03c14f9560a0140037577, type: 2}
      propertyPath: m_LocalRotation.x
      value: -.0379418507
      objectReference: {fileID: 0}
    - target: {fileID: 477972, guid: 746a18aa91b03c14f9560a0140037577, type: 2}
      propertyPath: m_LocalRotation.y
      value: -.641831636
      objectReference: {fileID: 0}
    - target: {fileID: 477972, guid: 746a18aa91b03c14f9560a0140037577, type: 2}
      propertyPath: m_LocalRotation.z
      value: -.00906837173
      objectReference: {fileID: 0}
    - target: {fileID: 477972, guid: 746a18aa91b03c14f9560a0140037577, type: 2}
      propertyPath: m_LocalRotation.w
      value: .76585269
      objectReference: {fileID: 0}
    - target: {fileID: 477972, guid: 746a18aa91b03c14f9560a0140037577, type: 2}
      propertyPath: m_RootOrder
      value: 3
      objectReference: {fileID: 0}
    - target: {fileID: 177972, guid: 746a18aa91b03c14f9560a0140037577, type: 2}
      propertyPath: m_Name
      value: Boat
      objectReference: {fileID: 0}
    - target: {fileID: 477974, guid: 746a18aa91b03c14f9560a0140037577, type: 2}
      propertyPath: m_RootOrder
      value: 1
      objectReference: {fileID: 0}
    - target: {fileID: 477970, guid: 746a18aa91b03c14f9560a0140037577, type: 2}
      propertyPath: m_RootOrder
      value: 0
      objectReference: {fileID: 0}
    - target: {fileID: 177974, guid: 746a18aa91b03c14f9560a0140037577, type: 2}
      propertyPath: m_IsActive
      value: 1
      objectReference: {fileID: 0}
    - target: {fileID: 177970, guid: 746a18aa91b03c14f9560a0140037577, type: 2}
      propertyPath: m_IsActive
      value: 1
      objectReference: {fileID: 0}
    - target: {fileID: 13577972, guid: 746a18aa91b03c14f9560a0140037577, type: 2}
      propertyPath: m_IsTrigger
      value: 1
      objectReference: {fileID: 0}
    - target: {fileID: 13577974, guid: 746a18aa91b03c14f9560a0140037577, type: 2}
      propertyPath: m_IsTrigger
      value: 1
      objectReference: {fileID: 0}
    - target: {fileID: 177974, guid: 746a18aa91b03c14f9560a0140037577, type: 2}
      propertyPath: m_Layer
      value: 4
      objectReference: {fileID: 0}
    - target: {fileID: 177972, guid: 746a18aa91b03c14f9560a0140037577, type: 2}
      propertyPath: m_Layer
      value: 4
      objectReference: {fileID: 0}
    - target: {fileID: 177970, guid: 746a18aa91b03c14f9560a0140037577, type: 2}
      propertyPath: m_Layer
      value: 4
      objectReference: {fileID: 0}
    m_RemovedComponents: []
  m_ParentPrefab: {fileID: 100100000, guid: 746a18aa91b03c14f9560a0140037577, type: 2}
  m_RootGameObject: {fileID: 601722113}
  m_IsPrefabParent: 0
--- !u!1 &1722809019
GameObject:
  m_ObjectHideFlags: 0
  m_PrefabParentObject: {fileID: 105548, guid: dc7adf126c171bd42b228317fa2c5b85, type: 2}
  m_PrefabInternal: {fileID: 2027826186}
  serializedVersion: 5
  m_Component:
  - component: {fileID: 1722809020}
  - component: {fileID: 1722809021}
  m_Layer: 4
  m_Name: RipplesCaustic
  m_TagString: Untagged
  m_Icon: {fileID: 0}
  m_NavMeshLayer: 0
  m_StaticEditorFlags: 0
  m_IsActive: 1
--- !u!4 &1722809020
Transform:
  m_ObjectHideFlags: 0
  m_PrefabParentObject: {fileID: 405548, guid: dc7adf126c171bd42b228317fa2c5b85, type: 2}
  m_PrefabInternal: {fileID: 2027826186}
  m_GameObject: {fileID: 1722809019}
  m_LocalRotation: {x: 0.7071068, y: 0, z: 0, w: 0.7071068}
  m_LocalPosition: {x: 0, y: 1, z: 0}
  m_LocalScale: {x: 0.01, y: 0.01, z: 0.2}
  m_Children: []
  m_Father: {fileID: 666142676}
  m_RootOrder: 0
  m_LocalEulerAnglesHint: {x: 0, y: 0, z: 0}
--- !u!119 &1722809021
Projector:
  m_ObjectHideFlags: 0
  m_PrefabParentObject: {fileID: 11905536, guid: dc7adf126c171bd42b228317fa2c5b85,
    type: 2}
  m_PrefabInternal: {fileID: 2027826186}
  m_GameObject: {fileID: 1722809019}
  m_Enabled: 1
  serializedVersion: 2
  m_NearClipPlane: 0.1
  m_FarClipPlane: 10
  m_FieldOfView: 60
  m_AspectRatio: 1
  m_Orthographic: 1
  m_OrthographicSize: 10
  m_Material: {fileID: 2100000, guid: 38053d4c7c60c2847b621f05a6cb201f, type: 2}
  m_IgnoreLayers:
    serializedVersion: 2
    m_Bits: 16
--- !u!1 &1779099701
GameObject:
  m_ObjectHideFlags: 0
  m_PrefabParentObject: {fileID: 177974, guid: 746a18aa91b03c14f9560a0140037577, type: 2}
  m_PrefabInternal: {fileID: 1635400465}
  serializedVersion: 5
  m_Component:
  - component: {fileID: 1779099704}
  - component: {fileID: 1779099703}
  - component: {fileID: 1779099702}
  m_Layer: 4
  m_Name: RippleCreator2
  m_TagString: Untagged
  m_Icon: {fileID: 0}
  m_NavMeshLayer: 0
  m_StaticEditorFlags: 0
  m_IsActive: 1
--- !u!114 &1779099702
MonoBehaviour:
  m_ObjectHideFlags: 0
  m_PrefabParentObject: {fileID: 11477974, guid: 746a18aa91b03c14f9560a0140037577,
    type: 2}
  m_PrefabInternal: {fileID: 1635400465}
  m_GameObject: {fileID: 1779099701}
  m_Enabled: 1
  m_EditorHideFlags: 0
  m_Script: {fileID: 11500000, guid: a36453e121acaab43996e5e65b7ff4b3, type: 3}
  m_Name: 
  m_EditorClassIdentifier: 
  IsReversedRipple: 0
  RippleStrenght: 0.3
  MaxVelocity: 2
  RandomRipplesInterval: 0.5
  reversedRippleDelay: 0.15
  SplashEffect: {fileID: 0}
  SplashEffectMoved: {fileID: 138562, guid: b10c4612fa59ff74891d70da2af48027, type: 2}
  SplashAudioSource: {fileID: 0}
  splashSizeMultiplier: 1.75
--- !u!135 &1779099703
SphereCollider:
  m_ObjectHideFlags: 0
  m_PrefabParentObject: {fileID: 13577974, guid: 746a18aa91b03c14f9560a0140037577,
    type: 2}
  m_PrefabInternal: {fileID: 1635400465}
  m_GameObject: {fileID: 1779099701}
  m_Material: {fileID: 0}
  m_IsTrigger: 1
  m_Enabled: 1
  serializedVersion: 2
  m_Radius: 0.8
  m_Center: {x: 0, y: 0, z: 0}
--- !u!4 &1779099704
Transform:
  m_ObjectHideFlags: 0
  m_PrefabParentObject: {fileID: 477974, guid: 746a18aa91b03c14f9560a0140037577, type: 2}
  m_PrefabInternal: {fileID: 1635400465}
  m_GameObject: {fileID: 1779099701}
  m_LocalRotation: {x: 0, y: 0, z: 0, w: 1}
  m_LocalPosition: {x: -1.16, y: 0.26, z: -0.53}
  m_LocalScale: {x: 1, y: 1, z: 1}
  m_Children: []
  m_Father: {fileID: 601722114}
  m_RootOrder: 1
  m_LocalEulerAnglesHint: {x: 0, y: 0, z: 0}
--- !u!1 &1924942703
GameObject:
  m_ObjectHideFlags: 0
  m_PrefabParentObject: {fileID: 0}
  m_PrefabInternal: {fileID: 0}
  serializedVersion: 5
  m_Component:
  - component: {fileID: 1924942705}
  - component: {fileID: 1924942704}
  m_Layer: 0
  m_Name: DrawColorPickers
  m_TagString: Untagged
  m_Icon: {fileID: 0}
  m_NavMeshLayer: 0
  m_StaticEditorFlags: 0
  m_IsActive: 1
--- !u!114 &1924942704
MonoBehaviour:
  m_ObjectHideFlags: 0
  m_PrefabParentObject: {fileID: 0}
  m_PrefabInternal: {fileID: 0}
  m_GameObject: {fileID: 1924942703}
  m_Enabled: 1
  m_EditorHideFlags: 0
  m_Script: {fileID: 11500000, guid: cb879ae8f1827f744953939a2dc2d840, type: 3}
  m_Name: 
  m_EditorClassIdentifier: 
  loadFromScene: 1
  colorPicker: []
--- !u!4 &1924942705
Transform:
  m_ObjectHideFlags: 0
  m_PrefabParentObject: {fileID: 0}
  m_PrefabInternal: {fileID: 0}
  m_GameObject: {fileID: 1924942703}
  m_LocalRotation: {x: 0, y: 0, z: 0, w: 1}
  m_LocalPosition: {x: 0, y: 0, z: 0}
  m_LocalScale: {x: 1, y: 1, z: 1}
  m_Children: []
  m_Father: {fileID: 0}
  m_RootOrder: 5
  m_LocalEulerAnglesHint: {x: 0, y: 0, z: 0}
--- !u!1001 &2027826186
Prefab:
  m_ObjectHideFlags: 0
  serializedVersion: 2
  m_Modification:
    m_TransformParent: {fileID: 0}
    m_Modifications:
    - target: {fileID: 405536, guid: dc7adf126c171bd42b228317fa2c5b85, type: 2}
      propertyPath: m_LocalPosition.x
      value: 10
      objectReference: {fileID: 0}
    - target: {fileID: 405536, guid: dc7adf126c171bd42b228317fa2c5b85, type: 2}
      propertyPath: m_LocalPosition.y
      value: 3.29999995
      objectReference: {fileID: 0}
    - target: {fileID: 405536, guid: dc7adf126c171bd42b228317fa2c5b85, type: 2}
      propertyPath: m_LocalPosition.z
      value: 10
      objectReference: {fileID: 0}
    - target: {fileID: 405536, guid: dc7adf126c171bd42b228317fa2c5b85, type: 2}
      propertyPath: m_LocalRotation.x
      value: 0
      objectReference: {fileID: 0}
    - target: {fileID: 405536, guid: dc7adf126c171bd42b228317fa2c5b85, type: 2}
      propertyPath: m_LocalRotation.y
      value: 0
      objectReference: {fileID: 0}
    - target: {fileID: 405536, guid: dc7adf126c171bd42b228317fa2c5b85, type: 2}
      propertyPath: m_LocalRotation.z
      value: 0
      objectReference: {fileID: 0}
    - target: {fileID: 405536, guid: dc7adf126c171bd42b228317fa2c5b85, type: 2}
      propertyPath: m_LocalRotation.w
      value: 1
      objectReference: {fileID: 0}
    - target: {fileID: 405536, guid: dc7adf126c171bd42b228317fa2c5b85, type: 2}
      propertyPath: m_RootOrder
      value: 6
      objectReference: {fileID: 0}
    - target: {fileID: 11405542, guid: dc7adf126c171bd42b228317fa2c5b85, type: 2}
      propertyPath: CurrenCamera
      value: 
      objectReference: {fileID: 381785376}
    m_RemovedComponents: []
  m_ParentPrefab: {fileID: 100100000, guid: dc7adf126c171bd42b228317fa2c5b85, type: 2}
  m_RootGameObject: {fileID: 240113618}
  m_IsPrefabParent: 0
--- !u!1 &2061805684
GameObject:
  m_ObjectHideFlags: 0
  m_PrefabParentObject: {fileID: 0}
  m_PrefabInternal: {fileID: 0}
  serializedVersion: 5
  m_Component:
  - component: {fileID: 2061805686}
  - component: {fileID: 2061805685}
  m_Layer: 0
  m_Name: Directional light
  m_TagString: Untagged
  m_Icon: {fileID: 0}
  m_NavMeshLayer: 0
  m_StaticEditorFlags: 0
  m_IsActive: 1
--- !u!108 &2061805685
Light:
  m_ObjectHideFlags: 0
  m_PrefabParentObject: {fileID: 0}
  m_PrefabInternal: {fileID: 0}
  m_GameObject: {fileID: 2061805684}
  m_Enabled: 1
  serializedVersion: 7
  m_Type: 1
  m_Color: {r: 1, g: 1, b: 1, a: 1}
  m_Intensity: 1
  m_Range: 10
  m_SpotAngle: 30
  m_CookieSize: 10
  m_Shadows:
    m_Type: 2
    m_Resolution: -1
    m_CustomResolution: -1
    m_Strength: 1
    m_Bias: 0.05
    m_NormalBias: 0.4
    m_NearPlane: 0.2
  m_Cookie: {fileID: 0}
  m_DrawHalo: 0
  m_Flare: {fileID: 0}
  m_RenderMode: 0
  m_CullingMask:
    serializedVersion: 2
    m_Bits: 4294967295
  m_Lightmapping: 1
  m_AreaSize: {x: 1, y: 1}
  m_BounceIntensity: 1
  m_ShadowRadius: 0
  m_ShadowAngle: 0
--- !u!4 &2061805686
Transform:
  m_ObjectHideFlags: 0
  m_PrefabParentObject: {fileID: 0}
  m_PrefabInternal: {fileID: 0}
  m_GameObject: {fileID: 2061805684}
  m_LocalRotation: {x: -0.4082179, y: 0.23456979, z: -0.10938169, w: -0.87542605}
  m_LocalPosition: {x: 0, y: 0, z: 0}
  m_LocalScale: {x: 1, y: 1, z: 1}
  m_Children: []
  m_Father: {fileID: 956830191}
  m_RootOrder: 0
  m_LocalEulerAnglesHint: {x: 0, y: 0, z: 0}
