%YAML 1.1
%TAG !u! tag:unity3d.com,2011:
--- !u!21 &2100000
Material:
  serializedVersion: 6
  m_ObjectHideFlags: 0
  m_PrefabParentObject: {fileID: 0}
  m_PrefabInternal: {fileID: 0}
  m_Name: SeaRipples
  m_Shader: {fileID: 4800000, guid: 0c1981a9a4649d3448defac0fcde7023, type: 3}
  m_ShaderKeywords: 
  m_LightmapFlags: 5
  m_CustomRenderQueue: -1
  stringTagMap: {}
  m_SavedProperties:
    serializedVersion: 2
    m_TexEnvs:
    - first:
        name: _Cube
      second:
        m_Texture: {fileID: 8900000, guid: ece412d1e2f204449b33c39c2008b7a3, type: 2}
        m_Scale: {x: 1, y: 1}
        m_Offset: {x: 0, y: 0}
    - first:
        name: _Foam
      second:
        m_Texture: {fileID: 2800000, guid: a92b6664d2ca8d244a6aaa0aada2cc9b, type: 3}
        m_Scale: {x: 10, y: 10}
        m_Offset: {x: 0, y: 0}
    - first:
        name: _MainTex
      second:
        m_Texture: {fileID: 0}
        m_Scale: {x: 1, y: 1}
        m_Offset: {x: 0, y: 0}
    - first:
        name: _Wave1
      second:
        m_Texture: {fileID: 2800000, guid: 58e5c8d32a9b8b3478c56dbbefd37882, type: 3}
        m_Scale: {x: 0.3, y: 0.5}
        m_Offset: {x: 0, y: 0}
    - first:
        name: _Wave2
      second:
        m_Texture: {fileID: 2800000, guid: 4680bc95f5e5574449cb5dabdc965736, type: 3}
        m_Scale: {x: 1, y: 1}
        m_Offset: {x: 0, y: 0}
    m_Floats:
    - first:
        name: _Bias
      second: -1
    - first:
        name: _DepthTransperent
      second: 0.28571427
    - first:
        name: _Distortion
      second: 350
    - first:
        name: _DistortionVert
      second: 2
    - first:
        name: _EdgeDistortion
      second: 0.2
    - first:
        name: _FPOW
      second: 5
    - first:
        name: _FadeBlend
      second: 10
    - first:
        name: _FadeBlend2
      second: 0.76
    - first:
        name: _FadeDepth
      second: 0.15
    - first:
        name: _FoamIntensity
      second: 0
    - first:
        name: _GerstnerIntensity
      second: 1
    - first:
        name: _OffsetFresnel
      second: 0.3
    - first:
        name: _Power
      second: 1.5
    - first:
        name: _R0
      second: 0.9
    - first:
        name: _ReflectionBrightness
      second: 0.3392857
    - first:
        name: _Scale
      second: 12
    - first:
        name: _Shininess
      second: 10
    - first:
        name: _TexturesScale
      second: 20
    - first:
        name: _WaveScale
      second: 1.5
    m_Colors:
    - first:
        name: _Color
      second: {r: 0.65224916, g: 0.7552699, b: 0.7647059, a: 1}
    - first:
        name: _Direction
      second: {r: 0.05, g: 0.3, b: 15, a: -3}
    - first:
        name: _FadeColor
      second: {r: 0.49019608, g: 0.80784315, b: 0.9098039, a: 1}
    - first:
        name: _FoamDirection
      second: {r: 0, g: 5, b: -1, a: -1}
    - first:
        name: _GAmplitude
      second: {r: 0.07, g: 0.1, b: 0.04, a: 0.26}
    - first:
        name: _GDirectionAB
      second: {r: 0.4, g: -0.2, b: 0.3, a: 0.25}
    - first:
        name: _GDirectionCD
      second: {r: 0.1, g: 2, b: 0.3, a: 0.5}
    - first:
        name: _GFrequency
      second: {r: 5, g: -3, b: 1, a: 0.8}
    - first:
        name: _GSpeed
      second: {r: 2, g: 2, b: 2, a: -2}
    - first:
        name: _GSteepness
      second: {r: 0.03, g: 0.05, b: -0.05, a: 0.06}
    - first:
        name: _GlareColor
      second: {r: 0.09803922, g: 0.105882354, b: 0.11764706, a: 1}
    - first:
        name: _ReflectionColor
      second: {r: 0.39215687, g: 0.39215687, b: 0.39215687, a: 1}
