%YAML 1.1
%TAG !u! tag:unity3d.com,2011:
--- !u!21 &2100000
Material:
  serializedVersion: 6
  m_ObjectHideFlags: 0
  m_PrefabParentObject: {fileID: 0}
  m_PrefabInternal: {fileID: 0}
  m_Name: Caustic
  m_Shader: {fileID: 4800000, guid: 4701903a2b7b33148be910b13da0c3aa, type: 3}
  m_ShaderKeywords: 
  m_LightmapFlags: 5
  m_CustomRenderQueue: -1
  stringTagMap: {}
  m_SavedProperties:
    serializedVersion: 2
    m_TexEnvs:
    - first:
        name: _CausticMask
      second:
        m_Texture: {fileID: 2800000, guid: 92002d8ac05f4ac4d8a3d238058fdf37, type: 3}
        m_Scale: {x: 2, y: 2}
        m_Offset: {x: 0, y: 0}
    - first:
        name: _CausticTex1
      second:
        m_Texture: {fileID: 2800000, guid: 9b99d4c636bf86147b63ade779913d99, type: 3}
        m_Scale: {x: 2, y: 2.5}
        m_Offset: {x: 0, y: 0}
    - first:
        name: _CausticTex2
      second:
        m_Texture: {fileID: 2800000, guid: 9b99d4c636bf86147b63ade779913d99, type: 3}
        m_Scale: {x: 3, y: 3}
        m_Offset: {x: 0, y: 0}
    - first:
        name: _CutoutTex
      second:
        m_Texture: {fileID: 2800000, guid: 9783d02201c1c3d428be1daf12e50264, type: 3}
        m_Scale: {x: 1, y: 1}
        m_Offset: {x: 0, y: 0}
    - first:
        name: _FalloffTex
      second:
        m_Texture: {fileID: 2800000, guid: 5ba3b18ea7aa8d745be7cd6b6af8986b, type: 3}
        m_Scale: {x: 1, y: 1}
        m_Offset: {x: 0, y: 0}
    - first:
        name: _MainTex
      second:
        m_Texture: {fileID: 0}
        m_Scale: {x: 1, y: 1}
        m_Offset: {x: 0, y: 0}
    - first:
        name: _WetTex
      second:
        m_Texture: {fileID: 2800000, guid: 71cedc250e583c54499657a0be1fedf0, type: 3}
        m_Scale: {x: 1, y: 1}
        m_Offset: {x: 0, y: 0}
    m_Floats:
    - first:
        name: _ColorStrength
      second: 1.3
    - first:
        name: _Distortion
      second: 2
    - first:
        name: _WetStrength
      second: 0.8357143
    m_Colors:
    - first:
        name: _CausticDirection
      second: {r: -2, g: 22, b: 0, a: 15}
    - first:
        name: _Color
      second: {r: 1, g: 1, b: 1, a: 1}
    - first:
        name: _DistortionDirection
      second: {r: 3, g: 2, b: 0, a: 0}
    - first:
        name: _TintColor
      second: {r: 0.8784314, g: 0.9411765, b: 0.9764706, a: 1}
