%YAML 1.1
%TAG !u! tag:unity3d.com,2011:
--- !u!21 &2100000
Material:
  serializedVersion: 6
  m_ObjectHideFlags: 0
  m_PrefabParentObject: {fileID: 0}
  m_PrefabInternal: {fileID: 0}
  m_Name: RippleCaustic
  m_Shader: {fileID: 4800000, guid: 8870137ad92b66543920b3e6aecc174e, type: 3}
  m_ShaderKeywords: 
  m_LightmapFlags: 5
  m_CustomRenderQueue: -1
  stringTagMap: {}
  m_SavedProperties:
    serializedVersion: 2
    m_TexEnvs:
    - first:
        name: _FalloffTex
      second:
        m_Texture: {fileID: 2800000, guid: 5ba3b18ea7aa8d745be7cd6b6af8986b, type: 3}
        m_Scale: {x: 1, y: 1}
        m_Offset: {x: 0, y: 0}
    - first:
        name: _MainTex
      second:
        m_Texture: {fileID: 0}
        m_Scale: {x: 1, y: 1}
        m_Offset: {x: 0, y: 0}
    - first:
        name: _RampStrength
      second:
        m_Texture: {fileID: 2800000, guid: 3e05ce30af239434b803d36139219f11, type: 3}
        m_Scale: {x: 1, y: 1}
        m_Offset: {x: 0, y: 0}
    m_Floats:
    - first:
        name: _RiplesStrength
      second: 1.3
    m_Colors:
    - first:
        name: _Color
      second: {r: 1, g: 1, b: 1, a: 1}
    - first:
        name: _TintColor
      second: {r: 0.92156863, g: 0.9529412, b: 0.972549, a: 1}
