%YAML 1.1
%TAG !u! tag:unity3d.com,2011:
--- !u!114 &11400000
MonoBehaviour:
  m_ObjectHideFlags: 0
  m_PrefabParentObject: {fileID: 0}
  m_PrefabInternal: {fileID: 0}
  m_GameObject: {fileID: 0}
  m_Enabled: 1
  m_EditorHideFlags: 0
  m_Script: {fileID: 11500000, guid: 54b0fca37a044d742ae1c7c80a2412a1, type: 3}
  m_Name: EnemyPool
  m_EditorClassIdentifier: 
  poolInfo:
  - poolObject: {fileID: 1447528087117468, guid: fa6f0d0f076a98443bed3842d648a8d0,
      type: 2}
    count: 50
  - poolObject: {fileID: 1371987102236374, guid: c773630f09ddb5242a90ed53c4d5e973,
      type: 2}
    count: 50
