%YAML 1.1
%TAG !u! tag:unity3d.com,2011:
--- !u!21 &2100000
Material:
  serializedVersion: 6
  m_ObjectHideFlags: 0
  m_PrefabParentObject: {fileID: 0}
  m_PrefabInternal: {fileID: 0}
  m_Name: LightWaves
  m_Shader: {fileID: 4800000, guid: 0fd1d7b163bf8e040ae074e92a30d2df, type: 3}
  m_ShaderKeywords: 
  m_LightmapFlags: 5
  m_CustomRenderQueue: -1
  stringTagMap: {}
  m_SavedProperties:
    serializedVersion: 2
    m_TexEnvs:
    - first:
        name: _MainTex
      second:
        m_Texture: {fileID: 0}
        m_Scale: {x: 1, y: 1}
        m_Offset: {x: 0, y: 0}
    - first:
        name: _Wave1
      second:
        m_Texture: {fileID: 2800000, guid: 5c4222e6d5e9c624c9255f9ffb1aa64d, type: 3}
        m_Scale: {x: 0.02, y: 0.015}
        m_Offset: {x: 0, y: 0}
    - first:
        name: _Wave2
      second:
        m_Texture: {fileID: 2800000, guid: 6d84d3cd605402241bacfd03d739f7c8, type: 3}
        m_Scale: {x: 0.01, y: 0.01}
        m_Offset: {x: 0, y: 0}
    m_Floats:
    - first:
        name: _FPOW
      second: 3
    - first:
        name: _OffsetFresnel
      second: 0.1
    - first:
        name: _R0
      second: 0.05
    - first:
        name: _Shininess
      second: 5
    - first:
        name: _TexturesScale
      second: 6
    m_Colors:
    - first:
        name: _Color
      second: {r: 0.7003676, g: 0.7274087, b: 0.75, a: 0.078431375}
    - first:
        name: _Direction
      second: {r: 0.05, g: 5, b: 2, a: -2}
    - first:
        name: _SpecColor
      second: {r: 1, g: 1, b: 1, a: 1}
    - first:
        name: _WorldLightDir
      second: {r: 0, g: 0.1, b: -0.5, a: 0}
